ProjetoInfraHard.vcd
$comment
Copyright (C) 1991-2010 Altera Corporation
Your use of Altera Corporation's design tools, logic functions 
and other software and tools, and its AMPP partner logic 
functions, and any output files from any of the foregoing 
(including device programming or simulation files), and any 
associated documentation or information are expressly subject 
to the terms and conditions of the Altera Program License 
Subscription Agreement, Altera MegaCore Function License 
Agreement, or other applicable license agreement, including, 
without limitation, that your use is for the sole purpose of 
programming logic devices manufactured by Altera and sold by 
Altera or its authorized distributors.  Please refer to the 
applicable agreement for further details.
$end

$date 
  03/28/2021 11:59:30 
$end
$version 
 QUARTUS_VCD_EXPORT 1.0 
$end
$timescale
  1 ps
$end
$scope module cpu $end
$var reg 1 ! CLOCK $end
$var reg 1 " RESET $end
$var reg 16 # Instr15_0[15:0] $end
$var reg 5 $ Instr20_16[4:0] $end
$var reg 5 % Instr25_21[4:0] $end
$var reg 6 & Instr31_26[5:0] $end
$var reg 32 ' Mem_in[31:0] $end
$var reg 32 ( Write_data[31:0] $end
$var reg 5 ) Write_reg[4:0] $end
$var reg 1 * Saida_b[0] $end
$var reg 1 + Saida_b[1] $end
$var reg 1 , Saida_b[2] $end
$var reg 1 - Saida_b[3] $end
$var reg 1 . Saida_b[4] $end
$var reg 1 / Saida_b[5] $end
$var reg 1 0 Saida_b[6] $end
$var reg 1 1 Saida_b[7] $end
$var reg 1 2 Saida_b[8] $end
$var reg 1 3 Saida_b[9] $end
$var reg 1 4 Saida_b[10] $end
$var reg 1 5 Saida_b[11] $end
$var reg 1 6 Saida_b[12] $end
$var reg 1 7 Saida_b[13] $end
$var reg 1 8 Saida_b[14] $end
$var reg 1 9 Saida_b[15] $end
$var reg 1 : Saida_b[16] $end
$var reg 1 ; Saida_b[17] $end
$var reg 1 < Saida_b[18] $end
$var reg 1 = Saida_b[19] $end
$var reg 1 > Saida_b[20] $end
$var reg 1 ? Saida_b[21] $end
$var reg 1 @ Saida_b[22] $end
$var reg 1 A Saida_b[23] $end
$var reg 1 B Saida_b[24] $end
$var reg 1 C Saida_b[25] $end
$var reg 1 D Saida_b[26] $end
$var reg 1 E Saida_b[27] $end
$var reg 1 F Saida_b[28] $end
$var reg 1 G Saida_b[29] $end
$var reg 1 H Saida_b[30] $end
$var reg 1 I Saida_b[31] $end
$scope module b2v_inst3 $end
$var reg 32 J Reg0[31:0] $end
$var reg 32 K Reg1[31:0] $end
$var reg 32 L Reg2[31:0] $end
$var reg 32 M Reg3[31:0] $end
$var reg 32 N Reg4[31:0] $end
$var reg 32 O Reg5[31:0] $end
$var reg 32 P Reg6[31:0] $end
$var reg 32 Q Reg7[31:0] $end
$var reg 32 R Reg8[31:0] $end
$var reg 32 S Reg9[31:0] $end
$var reg 32 T Reg10[31:0] $end
$var reg 32 U Reg11[31:0] $end
$var reg 32 V Reg12[31:0] $end
$var reg 32 W Reg13[31:0] $end
$var reg 32 X Reg14[31:0] $end
$var reg 32 Y Reg15[31:0] $end
$var reg 32 Z Reg16[31:0] $end
$var reg 32 [ Reg17[31:0] $end
$var reg 32 \ Reg18[31:0] $end
$var reg 32 ] Reg19[31:0] $end
$var reg 32 ^ Reg20[31:0] $end
$var reg 32 _ Reg21[31:0] $end
$var reg 32 ` Reg22[31:0] $end
$var reg 32 a Reg23[31:0] $end
$var reg 32 b Reg24[31:0] $end
$var reg 32 c Reg25[31:0] $end
$var reg 32 d Reg26[31:0] $end
$var reg 32 e Reg27[31:0] $end
$var reg 32 f Reg28[31:0] $end
$var reg 32 g Reg29[31:0] $end
$var reg 32 h Reg30[31:0] $end
$var reg 32 i Reg31[31:0] $end
$upscope $end
$scope module b2v_ALUout $end
$var reg 32 j Saida[31:0] $end
$upscope $end
$scope module b2v_EPC $end
$var reg 32 k Saida[31:0] $end
$upscope $end
$scope module b2v_Memory_Data_Register $end
$var reg 32 l Saida[31:0] $end
$upscope $end
$scope module b2v_PC $end
$var reg 32 m Saida[31:0] $end
$upscope $end
$scope module b2v_inst7 $end
$var reg 7 n state[6:0] $end
$upscope $end
$upscope $end
$enddefinitions $end
#0
$dumpvars
0!
0"
b0 #
b0 $
b0 %
b0 &
b0 '
b0 (
b0 )
0*
0+
0,
0-
0.
0/
00
01
02
03
04
05
06
07
08
09
0:
0;
0<
0=
0>
0?
0@
0A
0B
0C
0D
0E
0F
0G
0H
0I
b0 J
b0 K
b0 L
b0 M
b0 N
b0 O
b0 P
b0 Q
b0 R
b0 S
b0 T
b0 U
b0 V
b0 W
b0 X
b0 Y
b0 Z
b0 [
b0 \
b0 ]
b0 ^
b0 _
b0 `
b0 a
b0 b
b0 c
b0 d
b0 e
b0 f
b0 g
b0 h
b0 i
b0 j
b0 k
b0 l
b0 m
b10100 n
$end
#1000
1!
b10101 n
#2000
0!
#3000
1!
b100 m
b110110 n
#4000
0!
#5000
1!
b10000 n
#6000
0!
#7000
1!
b10 #
b10 $
b1000 &
b10 )
b0 n
#8000
0!
#9000
1!
b1100 (
b1100 j
b11 n
#10000
0!
#11000
1!
b100 n
#12000
0!
#13000
1!
b10 (
b10 j
b111001 n
#14000
0!
#15000
1!
b10 L
b10100 n
#16000
0!
#17000
1!
b10101 n
#18000
0!
#19000
1!
b1000 m
b110110 n
#20000
0!
#21000
1!
b10000 n
#22000
0!
#23000
1!
b111 #
b1 $
b1 )
b0 n
#24000
0!
#25000
1!
b100100 (
b100100 j
b11 n
#26000
0!
#27000
1!
b100 n
#28000
0!
#29000
1!
b111 (
b111 j
b111001 n
#30000
0!
#31000
1!
b111 K
b10100 n
#32000
0!
#33000
1!
b10101 n
#34000
0!
#35000
1!
b1100 m
b110110 n
#36000
0!
#37000
1!
b10000 n
#38000
0!
#39000
1!
b11010 #
b10 $
b1 %
b0 &
b10 )
b0 n
#40000
0!
#41000
1!
b10 '
b1110100 (
1+
b1110100 j
b10001 n
#42000
0!
#43000
1!
b1000001 n
